…
    ## The following objects are masked from 'package:stats':
    ## 
    ##     filter, lag

    ## The following objects are masked from 'package:base':
    ## 
    ##     intersect, setdiff, setequal, union

``` r
ans2<-group_by(f, date) %>% summarize(Total_step_each_day = sum(steps, na.rm = TRUE))
print(ans2)
```

    ## # A tibble: 61 x 2
    ##          date Total_step_each_day
    ##        <fctr>               <int>
    ##  1 2012-10-01                   0
    ##  2 2012-10-02                 126
    ##  3 2012-10-03               11352
    ##  4 2012-10-04               12116
    ##  5 2012-10-05               13294
    ##  6 2012-10-06               15420
    ##  7 2012-10-07               11015
    ##  8 2012-10-08                   0
    ##  9 2012-10-09               12811
    ## 10 2012-10-10                9900
    ## # ... with 51 more rows
…
3.calculate mean and median of each day
=======================================

``` r
ans3<-group_by(f, date) %>% summarize(Mean_each_day = mean(steps, na.rm = TRUE), Median_each_day = median(steps, na.rm = TRUE))
print(ans3)
```

    ## # A tibble: 61 x 3
    ##          date Mean_each_day Median_each_day
    ##        <fctr>         <dbl>           <dbl>
    ##  1 2012-10-01           NaN              NA
    ##  2 2012-10-02       0.43750               0
    ##  3 2012-10-03      39.41667               0
    ##  4 2012-10-04      42.06944               0
    ##  5 2012-10-05      46.15972               0
    ##  6 2012-10-06      53.54167               0
    ##  7 2012-10-07      38.24653               0
    ##  8 2012-10-08           NaN              NA
    ##  9 2012-10-09      44.48264               0
    ## 10 2012-10-10      34.37500               0
    ## # ... with 51 more rows
…
7. Plot histogram of the total number of steps taken each day after missing values are imputed
==============================================================================================

``` r
ans7<-group_by(ans6, date) %>% summarize(Total_step_each_day = sum(steps, na.rm = TRUE))
ans7$date<-as.Date(as.character(ans7$date))
print(ans7)
```

    ## # A tibble: 61 x 2
    ##          date Total_step_each_day
    ##        <date>               <dbl>
    ##  1 2012-10-01            10766.19
    ##  2 2012-10-02              126.00
    ##  3 2012-10-03            11352.00
    ##  4 2012-10-04            12116.00
    ##  5 2012-10-05            13294.00
    ##  6 2012-10-06            15420.00
    ##  7 2012-10-07            11015.00
    ##  8 2012-10-08            10766.19
    ##  9 2012-10-09            12811.00
    ## 10 2012-10-10             9900.00
    ## # ... with 51 more rows
…
calculate the mean by weektype factor

``` r
ans8<-group_by(ans8,interval, weektype) %>% summarize(five_mins_avg = mean(steps, na.rm = TRUE))
ans8
```

    ## # A tibble: 576 x 3
    ## # Groups:   interval [?]
    ##    interval weektype five_mins_avg
    ##       <int>   <fctr>         <dbl>
    ##  1        0 Weekdays   2.251153040
    ##  2        0  Weekend   0.214622642
    ##  3        5 Weekdays   0.445283019
    ##  4        5  Weekend   0.042452830
    ##  5       10 Weekdays   0.173165618
    ##  6       10  Weekend   0.016509434
    ##  7       15 Weekdays   0.197903564
    ##  8       15  Weekend   0.018867925
    ##  9       20 Weekdays   0.098951782
    ## 10       20  Weekend   0.009433962
    ## # ... with 566 more rows
…
